Data Tidying with Tidyverse in R | Ye Tao (Janson)
…
# make sure you have tidyr 1.0
library(tidyr)

## Warning: package 'tidyr' was built under R version 3.5.3

pivot_longer is the replacement for gather() and pivot_wider() is the replacement for spread().
Both are designed to be simpler and can handle more cases than gather and spread.

Pivot longer

relig_income %>%
  pivot_longer(-religion, names_to = "income", values_to = "count")

## # A tibble: 180 x 3
##    religion income             count
##    <chr>    <chr>              <dbl>
##  1 Agnostic <$10k                 27
##  2 Agnostic $10-20k               34
##  3 Agnostic $20-30k               60
##  4 Agnostic $30-40k               81
##  5 Agnostic $40-50k               76
##  6 Agnostic $50-75k              137
##  7 Agnostic $75-100k             122
##  8 Agnostic $100-150k            109
##  9 Agnostic >150k                 84
## 10 Agnostic Don't know/refused    96
## # ... with 170 more rows

billboard %>%
  pivot_longer(
    cols = starts_with("wk"),
    names_to = "week",
    names_prefix = "wk",
    names_ptypes = list(week = integer()),
    values_to = "rank",
    values_drop_na = TRUE,
  )

## # A tibble: 5,307 x 5
##    artist  track                   date.entered  week  rank
##    <chr>   <chr>                   <date>       <int> <dbl>
##  1 2 Pac   Baby Don't Cry (Keep... 2000-02-26       1    87
##  2 2 Pac   Baby Don't Cry (Keep... 2000-02-26       2    82
##  3 2 Pac   Baby Don't Cry (Keep... 2000-02-26       3    72
##  4 2 Pac   Baby Don't Cry (Keep... 2000-02-26       4    77
##  5 2 Pac   Baby Don't Cry (Keep... 2000-02-26       5    87
##  6 2 Pac   Baby Don't Cry (Keep... 2000-02-26       6    94
##  7 2 Pac   Baby Don't Cry (Keep... 2000-02-26       7    99
##  8 2Ge+her The Hardest Part Of ... 2000-09-02       1    91
##  9 2Ge+her The Hardest Part Of ... 2000-09-02       2    87
## 10 2Ge+her The Hardest Part Of ... 2000-09-02       3    92
## # ... with 5,297 more rows
…
us_rent_income %>%
  pivot_wider(names_from = variable, values_from = c(estimate, moe))

## # A tibble: 52 x 6
##    GEOID NAME             estimate_income estimate_rent moe_income moe_rent
##    <chr> <chr>                      <dbl>         <dbl>      <dbl>    <dbl>
##  1 01    Alabama                    24476           747        136        3
##  2 02    Alaska                     32940          1200        508       13
##  3 04    Arizona                    27517           972        148        4
##  4 05    Arkansas                   23789           709        165        5
##  5 06    California                 29454          1358        109        3
##  6 08    Colorado                   32401          1125        109        5
##  7 09    Connecticut                35326          1123        195        5
##  8 10    Delaware                   31560          1076        247       10
##  9 11    District of Col~           43198          1424        681       17
## 10 12    Florida                    25952          1077         70        3
## # ... with 42 more rows
…
