…
## Warning: 60 parsing failures.
## row col  expected    actual         file
##  24  -- 1 columns 2 columns <connection>
##  36  -- 1 columns 7 columns <connection>
##  58  -- 1 columns 3 columns <connection>
##  70  -- 1 columns 6 columns <connection>
##  71  -- 1 columns 3 columns <connection>
## ... ... ......... ......... ............
## See problems(...) for more details.

## # A tibble: 613 x 1
##    `<!DOCTYPE html>`                                                       
##    <chr>                                                                   
##  1 "<html lang=\"en\">"                                                    
##  2 <head>                                                                  
##  3 "<meta charset=\"utf-8\">"                                              
##  4 "<link rel=\"dns-prefetch\" href=\"https://github.githubassets.com\">"  
##  5 "<link rel=\"dns-prefetch\" href=\"https://avatars0.githubusercontent.c~
##  6 "<link rel=\"dns-prefetch\" href=\"https://avatars1.githubusercontent.c~
##  7 "<link rel=\"dns-prefetch\" href=\"https://avatars2.githubusercontent.c~
##  8 "<link rel=\"dns-prefetch\" href=\"https://avatars3.githubusercontent.c~
##  9 "<link rel=\"dns-prefetch\" href=\"https://github-cloud.s3.amazonaws.co~
## 10 "<link rel=\"dns-prefetch\" href=\"https://user-images.githubuserconten~
## # ... with 603 more rows
