Tidy Verb Variation Family | Ye Tao (Janson)
…
library(tidyverse)
library(nycflights13)

Some variations of verbs

tidyverse also ships with some variations of verbs which could be useful.

**Select_if

we use select_if when we wanna select multiple numerical columns in this case. This is extremely useful when there’re lots of features in your dataset. Below select all the columns that are numerical.

# only select columns which are numerical
flights %>% select_if(is.numeric)

## # A tibble: 336,776 x 14
##     year month   day dep_time sched_dep_time dep_delay arr_time
##    <int> <int> <int>    <int>          <int>     <dbl>    <int>
##  1  2013     1     1      517            515         2      830
##  2  2013     1     1      533            529         4      850
##  3  2013     1     1      542            540         2      923
##  4  2013     1     1      544            545        -1     1004
##  5  2013     1     1      554            600        -6      812
##  6  2013     1     1      554            558        -4      740
##  7  2013     1     1      555            600        -5      913
##  8  2013     1     1      557            600        -3      709
##  9  2013     1     1      557            600        -3      838
## 10  2013     1     1      558            600        -2      753
## # ... with 336,766 more rows, and 7 more variables: sched_arr_time <int>,
## #   arr_delay <dbl>, flight <int>, air_time <dbl>, distance <dbl>,
## #   hour <dbl>, minute <dbl>

Below is also the same as above. While ~ means that this is a formula and . represents whatever columns you’re working with, and it is flights in this case.

flights %>% select_if(~ is.numeric(.))

## # A tibble: 336,776 x 14
##     year month   day dep_time sched_dep_time dep_delay arr_time
##    <int> <int> <int>    <int>          <int>     <dbl>    <int>
##  1  2013     1     1      517            515         2      830
##  2  2013     1     1      533            529         4      850
##  3  2013     1     1      542            540         2      923
##  4  2013     1     1      544            545        -1     1004
##  5  2013     1     1      554            600        -6      812
##  6  2013     1     1      554            558        -4      740
##  7  2013     1     1      555            600        -5      913
##  8  2013     1     1      557            600        -3      709
##  9  2013     1     1      557            600        -3      838
## 10  2013     1     1      558            600        -2      753
## # ... with 336,766 more rows, and 7 more variables: sched_arr_time <int>,
## #   arr_delay <dbl>, flight <int>, air_time <dbl>, distance <dbl>,
## #   hour <dbl>, minute <dbl>

flights %>% select_if(~ !is.numeric(.)) 

## # A tibble: 336,776 x 5
##    carrier tailnum origin dest  time_hour          
##    <chr>   <chr>   <chr>  <chr> <dttm>             
##  1 UA      N14228  EWR    IAH   2013-01-01 05:00:00
##  2 UA      N24211  LGA    IAH   2013-01-01 05:00:00
##  3 AA      N619AA  JFK    MIA   2013-01-01 05:00:00
##  4 B6      N804JB  JFK    BQN   2013-01-01 05:00:00
##  5 DL      N668DN  LGA    ATL   2013-01-01 06:00:00
##  6 UA      N39463  EWR    ORD   2013-01-01 05:00:00
##  7 B6      N516JB  EWR    FLL   2013-01-01 06:00:00
##  8 EV      N829AS  LGA    IAD   2013-01-01 06:00:00
##  9 B6      N593JB  JFK    MCO   2013-01-01 06:00:00
## 10 AA      N3ALAA  LGA    ORD   2013-01-01 06:00:00
## # ... with 336,766 more rows

flights %>% rename_if(is.numeric, toupper)

## # A tibble: 336,776 x 19
##     YEAR MONTH   DAY DEP_TIME SCHED_DEP_TIME DEP_DELAY ARR_TIME
##    <int> <int> <int>    <int>          <int>     <dbl>    <int>
##  1  2013     1     1      517            515         2      830
##  2  2013     1     1      533            529         4      850
##  3  2013     1     1      542            540         2      923
##  4  2013     1     1      544            545        -1     1004
##  5  2013     1     1      554            600        -6      812
##  6  2013     1     1      554            558        -4      740
##  7  2013     1     1      555            600        -5      913
##  8  2013     1     1      557            600        -3      709
##  9  2013     1     1      557            600        -3      838
## 10  2013     1     1      558            600        -2      753
## # ... with 336,766 more rows, and 12 more variables: SCHED_ARR_TIME <int>,
## #   ARR_DELAY <dbl>, carrier <chr>, FLIGHT <int>, tailnum <chr>,
## #   origin <chr>, dest <chr>, AIR_TIME <dbl>, DISTANCE <dbl>, HOUR <dbl>,
## #   MINUTE <dbl>, time_hour <dttm>

flights %>% mutate_if(
  ~ is.numeric(.) && is.double(.),
  round
)

## # A tibble: 336,776 x 19
##     year month   day dep_time sched_dep_time dep_delay arr_time
##    <int> <int> <int>    <int>          <int>     <dbl>    <int>
##  1  2013     1     1      517            515         2      830
##  2  2013     1     1      533            529         4      850
##  3  2013     1     1      542            540         2      923
##  4  2013     1     1      544            545        -1     1004
##  5  2013     1     1      554            600        -6      812
##  6  2013     1     1      554            558        -4      740
##  7  2013     1     1      555            600        -5      913
##  8  2013     1     1      557            600        -3      709
##  9  2013     1     1      557            600        -3      838
## 10  2013     1     1      558            600        -2      753
## # ... with 336,766 more rows, and 12 more variables: sched_arr_time <int>,
## #   arr_delay <dbl>, carrier <chr>, flight <int>, tailnum <chr>,
## #   origin <chr>, dest <chr>, air_time <dbl>, distance <dbl>, hour <dbl>,
## #   minute <dbl>, time_hour <dttm>

flights %>% filter_if(
  ~ is.numeric(.),
  all_vars(. > 0)
)

## # A tibble: 79,090 x 19
##     year month   day dep_time sched_dep_time dep_delay arr_time
##    <int> <int> <int>    <int>          <int>     <dbl>    <int>
##  1  2013     1     1      517            515         2      830
##  2  2013     1     1      533            529         4      850
##  3  2013     1     1      542            540         2      923
##  4  2013     1     1      613            610         3      925
##  5  2013     1     1      623            610        13      920
##  6  2013     1     1      632            608        24      740
##  7  2013     1     1      715            713         2      911
##  8  2013     1     1      732            729         3     1041
##  9  2013     1     1      732            645        47     1011
## 10  2013     1     1      743            730        13     1107
## # ... with 79,080 more rows, and 12 more variables: sched_arr_time <int>,
## #   arr_delay <dbl>, carrier <chr>, flight <int>, tailnum <chr>,
## #   origin <chr>, dest <chr>, air_time <dbl>, distance <dbl>, hour <dbl>,
## #   minute <dbl>, time_hour <dttm>

flights %>% rename_at(
  vars(starts_with("arr_")),
  ~ str_replace(., "arr_", "arrival_")
)

## # A tibble: 336,776 x 19
##     year month   day dep_time sched_dep_time dep_delay arrival_time
##    <int> <int> <int>    <int>          <int>     <dbl>        <int>
##  1  2013     1     1      517            515         2          830
##  2  2013     1     1      533            529         4          850
##  3  2013     1     1      542            540         2          923
##  4  2013     1     1      544            545        -1         1004
##  5  2013     1     1      554            600        -6          812
##  6  2013     1     1      554            558        -4          740
##  7  2013     1     1      555            600        -5          913
##  8  2013     1     1      557            600        -3          709
##  9  2013     1     1      557            600        -3          838
## 10  2013     1     1      558            600        -2          753
## # ... with 336,766 more rows, and 12 more variables: sched_arr_time <int>,
## #   arrival_delay <dbl>, carrier <chr>, flight <int>, tailnum <chr>,
## #   origin <chr>, dest <chr>, air_time <dbl>, distance <dbl>, hour <dbl>,
## #   minute <dbl>, time_hour <dttm>

flights %>% filter_at(
  vars(ends_with("_time"), -air_time),
  all_vars(. >= 1200)
)

## # A tibble: 183,159 x 19
##     year month   day dep_time sched_dep_time dep_delay arr_time
##    <int> <int> <int>    <int>          <int>     <dbl>    <int>
##  1  2013     1     1     1200           1200         0     1408
##  2  2013     1     1     1202           1207        -5     1318
##  3  2013     1     1     1203           1205        -2     1501
##  4  2013     1     1     1203           1200         3     1519
##  5  2013     1     1     1204           1200         4     1500
##  6  2013     1     1     1205           1200         5     1503
##  7  2013     1     1     1206           1209        -3     1325
##  8  2013     1     1     1211           1215        -4     1423
##  9  2013     1     1     1217           1220        -3     1414
## 10  2013     1     1     1217           1218        -1     1525
## # ... with 183,149 more rows, and 12 more variables: sched_arr_time <int>,
## #   arr_delay <dbl>, carrier <chr>, flight <int>, tailnum <chr>,
## #   origin <chr>, dest <chr>, air_time <dbl>, distance <dbl>, hour <dbl>,
## #   minute <dbl>, time_hour <dttm>
…
Filter with mutilpe values

By looking ar the order column, we can see this %in% works very conveniently somhow.

msleep %>% 
    select(name:order) %>% 
    filter(order %in% c("Carnivora", "Primates"))

## # A tibble: 24 x 4
##    name              genus         vore  order    
##    <chr>             <chr>         <chr> <chr>    
##  1 Cheetah           Acinonyx      carni Carnivora
##  2 Owl monkey        Aotus         omni  Primates 
##  3 Northern fur seal Callorhinus   carni Carnivora
##  4 Dog               Canis         carni Carnivora
##  5 Grivet            Cercopithecus omni  Primates 
##  6 Patas monkey      Erythrocebus  omni  Primates 
##  7 Domestic cat      Felis         carni Carnivora
##  8 Galago            Galago        omni  Primates 
##  9 Gray seal         Haliochoerus  carni Carnivora
## 10 Human             Homo          omni  Primates 
## # ... with 14 more rows
…
And we can filter away those missing values from my datset in vore column. ANd now there is no missing values within the vore variable in this case.

msleep %>% 
    filter(!is.na(vore))

## # A tibble: 76 x 11
##    name  genus vore  order conservation sleep_total sleep_rem sleep_cycle
##    <chr> <chr> <chr> <chr> <chr>              <dbl>     <dbl>       <dbl>
##  1 Chee~ Acin~ carni Carn~ lc                  12.1      NA        NA    
##  2 Owl ~ Aotus omni  Prim~ <NA>                17         1.8      NA    
##  3 Moun~ Aplo~ herbi Rode~ nt                  14.4       2.4      NA    
##  4 Grea~ Blar~ omni  Sori~ lc                  14.9       2.3       0.133
##  5 Cow   Bos   herbi Arti~ domesticated         4         0.7       0.667
##  6 Thre~ Brad~ herbi Pilo~ <NA>                14.4       2.2       0.767
##  7 Nort~ Call~ carni Carn~ vu                   8.7       1.4       0.383
##  8 Dog   Canis carni Carn~ domesticated        10.1       2.9       0.333
##  9 Roe ~ Capr~ herbi Arti~ lc                   3        NA        NA    
## 10 Goat  Capri herbi Arti~ lc                   5.3       0.6      NA    
## # ... with 66 more rows, and 3 more variables: awake <dbl>, brainwt <dbl>,
## #   bodywt <dbl>
…
The same can be done for numerical values: This code will retain any rows that has any value below 0.1:

msleep %>%  
  select(name, sleep_total:bodywt) %>% 
  filter_all(any_vars(. < 0.1))

## # A tibble: 47 x 7
##    name             sleep_total sleep_rem sleep_cycle awake  brainwt bodywt
##    <chr>                  <dbl>     <dbl>       <dbl> <dbl>    <dbl>  <dbl>
##  1 Owl monkey              17         1.8      NA       7    1.55e-2  0.48 
##  2 Greater short-t~        14.9       2.3       0.133   9.1  2.90e-4  0.019
##  3 Vesper mouse             7        NA        NA      17   NA        0.045
##  4 Dog                     10.1       2.9       0.333  13.9  7.00e-2 14    
##  5 Roe deer                 3        NA        NA      21    9.82e-2 14.8  
##  6 Guinea pig               9.4       0.8       0.217  14.6  5.50e-3  0.728
##  7 Chinchilla              12.5       1.5       0.117  11.5  6.40e-3  0.42 
##  8 Star-nosed mole         10.3       2.2      NA      13.7  1.00e-3  0.06 
##  9 African giant p~         8.3       2        NA      15.7  6.60e-3  1    
## 10 Lesser short-ta~         9.1       1.4       0.15   14.9  1.40e-4  0.005
## # ... with 37 more rows
…
